…
We still haven't talked much about the code in the chunk, but hopefully you can start to make sense of what `read_csv`, `filter`, `mutate`, `group_by`, and `summarize` are doing. What I'd like to do is see the data for each state for each year. Do you have any intuition as to which line in this chunk we want to change? If you thought, "well, we grouped by year to get the data by year, perhaps I want to add the state to that command to get the state-level data" - you were right! But if we add "state" to the filter command arguments, R will tell us that it doesn't know what we're talking about. When we have a new dataset, we normally want to explore it a bit to understand what data it contains. I have three general tools that I like to use. Let me show them to you with this dataset.

If I run the `read_csv` command, I'll get an abbreviated view of the data frame


```r
read_csv("project_tycho/US.23502006.csv",
		col_type=cols(PartOfCumulativeCountSeries = col_logical()))
```

```
## # A tibble: 51,254 x 20
##    ConditionName ConditionSNOMED PathogenName PathogenTaxonID Fatalities
##    <chr>                   <dbl> <chr>                  <dbl>      <dbl>
##  1 Lyme disease         23502006 Borrelia                 138          0
##  2 Lyme disease         23502006 Borrelia                 138          0
##  3 Lyme disease         23502006 Borrelia                 138          0
##  4 Lyme disease         23502006 Borrelia                 138          0
##  5 Lyme disease         23502006 Borrelia                 138          0
##  6 Lyme disease         23502006 Borrelia                 138          0
##  7 Lyme disease         23502006 Borrelia                 138          0
##  8 Lyme disease         23502006 Borrelia                 138          0
##  9 Lyme disease         23502006 Borrelia                 138          0
## 10 Lyme disease         23502006 Borrelia                 138          0
## # … with 51,244 more rows, and 15 more variables: CountryName <chr>,
## #   CountryISO <chr>, Admin1Name <chr>, Admin1ISO <chr>, Admin2Name <lgl>,
## #   CityName <lgl>, PeriodStartDate <date>, PeriodEndDate <date>,
## #   PartOfCumulativeCountSeries <lgl>, AgeRange <chr>, Subpopulation <chr>,
## #   PlaceOfAcquisition <lgl>, DiagnosisCertainty <lgl>, SourceName <chr>,
## #   CountValue <dbl>
```
…
