…
If you now run


```r
annual_state_counts
```

```
## # A tibble: 1,145 x 3
## # Groups:   year [26]
##     year Admin1Name           count
##    <dbl> <chr>                <dbl>
##  1  1991 ALABAMA                 18
##  2  1991 ARIZONA                  1
##  3  1991 ARKANSAS                29
##  4  1991 CALIFORNIA             323
##  5  1991 CONNECTICUT           1221
##  6  1991 DELAWARE                72
##  7  1991 DISTRICT OF COLUMBIA     5
##  8  1991 FLORIDA                 23
##  9  1991 GEORGIA                 31
## 10  1991 IDAHO                    2
## # … with 1,135 more rows
```
…
## Simplifying our data frame with `filter`

I'd like to return to a line plot to represent these data, but I only want to depict a handful of states. To do this, we'll need to learn more about the `filter` function. As the name suggests, this function filters the dataset to retain those rows that satisfy values of interest. We've already been using `filter` to retain those rows that are `PartOfCumulativeCountSeries`. This means that the value in `CountValue` column for that row are for the year rather than for a shorter time period (because states vary in how they report the data, I chose to go with these annual data). I can modify the existing `filter` function arguments or call the function again with different arguments. These both give me data for Michigan


```r
read_csv("project_tycho/US.23502006.csv",
					col_type=cols(PartOfCumulativeCountSeries = col_logical())) %>%
	filter(PartOfCumulativeCountSeries, Admin1Name=="MICHIGAN")
```

```
## # A tibble: 980 x 20
##    ConditionName ConditionSNOMED PathogenName PathogenTaxonID Fatalities
##    <chr>                   <dbl> <chr>                  <dbl>      <dbl>
##  1 Lyme disease         23502006 Borrelia                 138          0
##  2 Lyme disease         23502006 Borrelia                 138          0
##  3 Lyme disease         23502006 Borrelia                 138          0
##  4 Lyme disease         23502006 Borrelia                 138          0
##  5 Lyme disease         23502006 Borrelia                 138          0
##  6 Lyme disease         23502006 Borrelia                 138          0
##  7 Lyme disease         23502006 Borrelia                 138          0
##  8 Lyme disease         23502006 Borrelia                 138          0
##  9 Lyme disease         23502006 Borrelia                 138          0
## 10 Lyme disease         23502006 Borrelia                 138          0
## # … with 970 more rows, and 15 more variables: CountryName <chr>,
## #   CountryISO <chr>, Admin1Name <chr>, Admin1ISO <chr>, Admin2Name <lgl>,
## #   CityName <lgl>, PeriodStartDate <date>, PeriodEndDate <date>,
## #   PartOfCumulativeCountSeries <lgl>, AgeRange <chr>, Subpopulation <chr>,
## #   PlaceOfAcquisition <lgl>, DiagnosisCertainty <lgl>, SourceName <chr>,
## #   CountValue <dbl>
```


```r
read_csv("project_tycho/US.23502006.csv",
					col_type=cols(PartOfCumulativeCountSeries = col_logical())) %>%
	filter(PartOfCumulativeCountSeries) %>%
	filter(Admin1Name=="MICHIGAN")
```

```
## # A tibble: 980 x 20
##    ConditionName ConditionSNOMED PathogenName PathogenTaxonID Fatalities
##    <chr>                   <dbl> <chr>                  <dbl>      <dbl>
##  1 Lyme disease         23502006 Borrelia                 138          0
##  2 Lyme disease         23502006 Borrelia                 138          0
##  3 Lyme disease         23502006 Borrelia                 138          0
##  4 Lyme disease         23502006 Borrelia                 138          0
##  5 Lyme disease         23502006 Borrelia                 138          0
##  6 Lyme disease         23502006 Borrelia                 138          0
##  7 Lyme disease         23502006 Borrelia                 138          0
##  8 Lyme disease         23502006 Borrelia                 138          0
##  9 Lyme disease         23502006 Borrelia                 138          0
## 10 Lyme disease         23502006 Borrelia                 138          0
## # … with 970 more rows, and 15 more variables: CountryName <chr>,
## #   CountryISO <chr>, Admin1Name <chr>, Admin1ISO <chr>, Admin2Name <lgl>,
## #   CityName <lgl>, PeriodStartDate <date>, PeriodEndDate <date>,
## #   PartOfCumulativeCountSeries <lgl>, AgeRange <chr>, Subpopulation <chr>,
## #   PlaceOfAcquisition <lgl>, DiagnosisCertainty <lgl>, SourceName <chr>,
## #   CountValue <dbl>
```
…
