…
```
## Warning: 70075 parsing failures.
##  row  col           expected actual                   file
## 1889 SNWD 1/0/T/F/TRUE/FALSE    0.0 'noaa/USC00200230.csv'
## 1890 SNWD 1/0/T/F/TRUE/FALSE    0.0 'noaa/USC00200230.csv'
## 1891 SNWD 1/0/T/F/TRUE/FALSE    0.0 'noaa/USC00200230.csv'
## 1892 SNWD 1/0/T/F/TRUE/FALSE    0.0 'noaa/USC00200230.csv'
## 1893 SNWD 1/0/T/F/TRUE/FALSE    0.0 'noaa/USC00200230.csv'
## .... .... .................. ...... ......................
## See problems(...) for more details.
```

```
## # A tibble: 46,650 x 13
##    STATION NAME  DATE       DAPR  DASF  MDPR  MDSF   PRCP  SNOW SNWD   TMAX
##    <chr>   <chr> <date>     <lgl> <lgl> <lgl> <lgl> <dbl> <dbl> <lgl> <dbl>
##  1 USC002… ANN … 1891-10-01 NA    NA    NA    NA     NA      NA NA     20.6
##  2 USC002… ANN … 1891-10-02 NA    NA    NA    NA     NA      NA NA     26.7
##  3 USC002… ANN … 1891-10-03 NA    NA    NA    NA     NA      NA NA     26.1
##  4 USC002… ANN … 1891-10-04 NA    NA    NA    NA      7.6    NA NA     22.8
##  5 USC002… ANN … 1891-10-05 NA    NA    NA    NA     NA      NA NA     13.9
##  6 USC002… ANN … 1891-10-06 NA    NA    NA    NA     NA      NA NA     14.4
##  7 USC002… ANN … 1891-10-07 NA    NA    NA    NA      4.1    NA NA     10.6
##  8 USC002… ANN … 1891-10-08 NA    NA    NA    NA     NA      NA NA     13.9
##  9 USC002… ANN … 1891-10-09 NA    NA    NA    NA     NA      NA NA     15  
## 10 USC002… ANN … 1891-10-10 NA    NA    NA    NA     NA      NA NA     16.7
## # … with 46,640 more rows, and 2 more variables: TMIN <dbl>, TOBS <lgl>
```
…
```
## Warning: 33801 parsing failures.
##   row  col           expected actual                   file
## 12510 TOBS 1/0/T/F/TRUE/FALSE    1.1 'noaa/USC00200230.csv'
## 12511 TOBS 1/0/T/F/TRUE/FALSE    1.1 'noaa/USC00200230.csv'
## 12512 TOBS 1/0/T/F/TRUE/FALSE    0.6 'noaa/USC00200230.csv'
## 12513 TOBS 1/0/T/F/TRUE/FALSE    3.9 'noaa/USC00200230.csv'
## 12514 TOBS 1/0/T/F/TRUE/FALSE    2.8 'noaa/USC00200230.csv'
## ..... .... .................. ...... ......................
## See problems(...) for more details.
```

```
## # A tibble: 46,650 x 13
##    STATION NAME  DATE       DAPR   DASF MDPR   MDSF  PRCP  SNOW  SNWD  TMAX
##    <chr>   <chr> <date>     <lgl> <dbl> <lgl> <dbl> <dbl> <dbl> <dbl> <dbl>
##  1 USC002… ANN … 1891-10-01 NA       NA NA       NA  NA      NA    NA  20.6
##  2 USC002… ANN … 1891-10-02 NA       NA NA       NA  NA      NA    NA  26.7
##  3 USC002… ANN … 1891-10-03 NA       NA NA       NA  NA      NA    NA  26.1
##  4 USC002… ANN … 1891-10-04 NA       NA NA       NA   7.6    NA    NA  22.8
##  5 USC002… ANN … 1891-10-05 NA       NA NA       NA  NA      NA    NA  13.9
##  6 USC002… ANN … 1891-10-06 NA       NA NA       NA  NA      NA    NA  14.4
##  7 USC002… ANN … 1891-10-07 NA       NA NA       NA   4.1    NA    NA  10.6
##  8 USC002… ANN … 1891-10-08 NA       NA NA       NA  NA      NA    NA  13.9
##  9 USC002… ANN … 1891-10-09 NA       NA NA       NA  NA      NA    NA  15  
## 10 USC002… ANN … 1891-10-10 NA       NA NA       NA  NA      NA    NA  16.7
## # … with 46,640 more rows, and 2 more variables: TMIN <dbl>, TOBS <lgl>
```
…
```
## # A tibble: 46,650 x 13
##    STATION NAME  DATE        DAPR  DASF  MDPR  MDSF  PRCP  SNOW  SNWD  TMAX
##    <chr>   <chr> <date>     <dbl> <dbl> <dbl> <dbl> <dbl> <dbl> <dbl> <dbl>
##  1 USC002… ANN … 1891-10-01    NA    NA    NA    NA  NA      NA    NA  20.6
##  2 USC002… ANN … 1891-10-02    NA    NA    NA    NA  NA      NA    NA  26.7
##  3 USC002… ANN … 1891-10-03    NA    NA    NA    NA  NA      NA    NA  26.1
##  4 USC002… ANN … 1891-10-04    NA    NA    NA    NA   7.6    NA    NA  22.8
##  5 USC002… ANN … 1891-10-05    NA    NA    NA    NA  NA      NA    NA  13.9
##  6 USC002… ANN … 1891-10-06    NA    NA    NA    NA  NA      NA    NA  14.4
##  7 USC002… ANN … 1891-10-07    NA    NA    NA    NA   4.1    NA    NA  10.6
##  8 USC002… ANN … 1891-10-08    NA    NA    NA    NA  NA      NA    NA  13.9
##  9 USC002… ANN … 1891-10-09    NA    NA    NA    NA  NA      NA    NA  15  
## 10 USC002… ANN … 1891-10-10    NA    NA    NA    NA  NA      NA    NA  16.7
## # … with 46,640 more rows, and 2 more variables: TMIN <dbl>, TOBS <dbl>
```

The only difference we see between these two outputs is pretty subtle - the type for `TOBS` changed from a logical to a double. If you go back to the station's summary webpage and click on the "Air Temperature" link, you'll see that `TOBS` (Temperature at the time of observation) was first collected in 1926, about 35 years or 12775 days into the dataset. That's beyond the 10,000 rows or days we used with `guess_max = 10000`.

Perhaps the best way of setting the variable types is to set them manually using the `col_types` argument. We can do this a few different ways, but the easiest is to create a string where each letter in the string indicates the type of data in each column. Character data can be represented with a "c", integer data (counts) with an "i", double (i.e. decimal) data with a "d", any numeric data with an "n", logical data with a "l", date data with a "D", time data with a "t", date-time data with a "T", and you can tell `read_csv` to guess the column with a "?". You can also tell `read_csv` to skip the column with a "\_". If you forget this (and I do!) you can find the codes in the `col_types` section of the `?read_csv` documentation. Applying this knowledge along with the information on the summary webpage we can do the following...


```r
read_csv('noaa/USC00200230.csv', col_types="ccDdddddddddd")
```

```
## # A tibble: 46,650 x 13
##    STATION NAME  DATE        DAPR  DASF  MDPR  MDSF  PRCP  SNOW  SNWD  TMAX
##    <chr>   <chr> <date>     <dbl> <dbl> <dbl> <dbl> <dbl> <dbl> <dbl> <dbl>
##  1 USC002… ANN … 1891-10-01    NA    NA    NA    NA  NA      NA    NA  20.6
##  2 USC002… ANN … 1891-10-02    NA    NA    NA    NA  NA      NA    NA  26.7
##  3 USC002… ANN … 1891-10-03    NA    NA    NA    NA  NA      NA    NA  26.1
##  4 USC002… ANN … 1891-10-04    NA    NA    NA    NA   7.6    NA    NA  22.8
##  5 USC002… ANN … 1891-10-05    NA    NA    NA    NA  NA      NA    NA  13.9
##  6 USC002… ANN … 1891-10-06    NA    NA    NA    NA  NA      NA    NA  14.4
##  7 USC002… ANN … 1891-10-07    NA    NA    NA    NA   4.1    NA    NA  10.6
##  8 USC002… ANN … 1891-10-08    NA    NA    NA    NA  NA      NA    NA  13.9
##  9 USC002… ANN … 1891-10-09    NA    NA    NA    NA  NA      NA    NA  15  
## 10 USC002… ANN … 1891-10-10    NA    NA    NA    NA  NA      NA    NA  16.7
## # … with 46,640 more rows, and 2 more variables: TMIN <dbl>, TOBS <dbl>
```
…
```
## # A tibble: 46,650 x 13
##    STATION NAME  DATE        DAPR  DASF  MDPR  MDSF  PRCP  SNOW  SNWD  TMAX
##    <chr>   <chr> <date>     <dbl> <dbl> <dbl> <dbl> <dbl> <dbl> <dbl> <dbl>
##  1 USC002… ANN … 1891-10-01    NA    NA    NA    NA  NA      NA    NA  20.6
##  2 USC002… ANN … 1891-10-02    NA    NA    NA    NA  NA      NA    NA  26.7
##  3 USC002… ANN … 1891-10-03    NA    NA    NA    NA  NA      NA    NA  26.1
##  4 USC002… ANN … 1891-10-04    NA    NA    NA    NA   7.6    NA    NA  22.8
##  5 USC002… ANN … 1891-10-05    NA    NA    NA    NA  NA      NA    NA  13.9
##  6 USC002… ANN … 1891-10-06    NA    NA    NA    NA  NA      NA    NA  14.4
##  7 USC002… ANN … 1891-10-07    NA    NA    NA    NA   4.1    NA    NA  10.6
##  8 USC002… ANN … 1891-10-08    NA    NA    NA    NA  NA      NA    NA  13.9
##  9 USC002… ANN … 1891-10-09    NA    NA    NA    NA  NA      NA    NA  15  
## 10 USC002… ANN … 1891-10-10    NA    NA    NA    NA  NA      NA    NA  16.7
## # … with 46,640 more rows, and 2 more variables: TMIN <dbl>, TOBS <dbl>
```
As we saw earlier, there's also `col_logical`. Since so many of our columns are of type `col_double`, we can make that the default setting and simplify the syntax


```r
read_csv('noaa/USC00200230.csv',
	col_types=cols(
		STATION = col_character(),
		NAME = col_character(),
		DATE = col_date(),
		.default = col_double())   
	)
```

```
## # A tibble: 46,650 x 13
##    STATION NAME  DATE        DAPR  DASF  MDPR  MDSF  PRCP  SNOW  SNWD  TMAX
##    <chr>   <chr> <date>     <dbl> <dbl> <dbl> <dbl> <dbl> <dbl> <dbl> <dbl>
##  1 USC002… ANN … 1891-10-01    NA    NA    NA    NA  NA      NA    NA  20.6
##  2 USC002… ANN … 1891-10-02    NA    NA    NA    NA  NA      NA    NA  26.7
##  3 USC002… ANN … 1891-10-03    NA    NA    NA    NA  NA      NA    NA  26.1
##  4 USC002… ANN … 1891-10-04    NA    NA    NA    NA   7.6    NA    NA  22.8
##  5 USC002… ANN … 1891-10-05    NA    NA    NA    NA  NA      NA    NA  13.9
##  6 USC002… ANN … 1891-10-06    NA    NA    NA    NA  NA      NA    NA  14.4
##  7 USC002… ANN … 1891-10-07    NA    NA    NA    NA   4.1    NA    NA  10.6
##  8 USC002… ANN … 1891-10-08    NA    NA    NA    NA  NA      NA    NA  13.9
##  9 USC002… ANN … 1891-10-09    NA    NA    NA    NA  NA      NA    NA  15  
## 10 USC002… ANN … 1891-10-10    NA    NA    NA    NA  NA      NA    NA  16.7
## # … with 46,640 more rows, and 2 more variables: TMIN <dbl>, TOBS <dbl>
```
All that to read in the data without an error :) Hopefully, you can appreciate the flexibility that `read_csv` gives you for specifying the type of data that you are reading in.


## `selecting`-ing columns from a data frame

Using our skills that we developed with the Project Tycho data we can begin to take a look at the structure of these data. We can see that there are 46,642 rows (46,642 days / 365 days/year ~ 128 years worth of data) and 12 columns. Some of these columns aren't very useful (e.g. `STATION` and `NAME` are the same value for every row) and some of them don't have much data (e.g. `DAPR`, `DASF`, `MDPR`, `MDSF` have 0% coverage). We can either remove those columns or we can select the columns we want to keep. To do either approach we can use the `select` function.


```r
read_csv('noaa/USC00200230.csv', col_types="ccDdddddddddd") %>%
	select(DATE)
```

```
## # A tibble: 46,650 x 1
##    DATE      
##    <date>    
##  1 1891-10-01
##  2 1891-10-02
##  3 1891-10-03
##  4 1891-10-04
##  5 1891-10-05
##  6 1891-10-06
##  7 1891-10-07
##  8 1891-10-08
##  9 1891-10-09
## 10 1891-10-10
## # … with 46,640 more rows
```

This returns a new data frame that is made up of the data in the `DATE` column. We want more columns. We can add column names separated by commas


```r
read_csv('noaa/USC00200230.csv', col_types="ccDdddddddddd") %>%
	select(DATE, TMAX)
```

```
## # A tibble: 46,650 x 2
##    DATE        TMAX
##    <date>     <dbl>
##  1 1891-10-01  20.6
##  2 1891-10-02  26.7
##  3 1891-10-03  26.1
##  4 1891-10-04  22.8
##  5 1891-10-05  13.9
##  6 1891-10-06  14.4
##  7 1891-10-07  10.6
##  8 1891-10-08  13.9
##  9 1891-10-09  15  
## 10 1891-10-10  16.7
## # … with 46,640 more rows
```

Let's get all of the temperature data


```r
read_csv('noaa/USC00200230.csv', col_types="ccDdddddddddd") %>%
	select(DATE, TMAX, TMIN, TOBS)
```

```
## # A tibble: 46,650 x 4
##    DATE        TMAX  TMIN  TOBS
##    <date>     <dbl> <dbl> <dbl>
##  1 1891-10-01  20.6   7.8    NA
##  2 1891-10-02  26.7  13.9    NA
##  3 1891-10-03  26.1  16.1    NA
##  4 1891-10-04  22.8  11.1    NA
##  5 1891-10-05  13.9   6.7    NA
##  6 1891-10-06  14.4   5      NA
##  7 1891-10-07  10.6   5.6    NA
##  8 1891-10-08  13.9   3.3    NA
##  9 1891-10-09  15     3.9    NA
## 10 1891-10-10  16.7   5      NA
## # … with 46,640 more rows
```

Three column names for temperature isn't too horrible to type in. There's an easier way that you might find useful in other circumstances. We can select columns that `starts_with` a "T"


```r
read_csv('noaa/USC00200230.csv', col_types="ccDdddddddddd") %>%
	select(DATE, starts_with("T"))
```

```
## # A tibble: 46,650 x 4
##    DATE        TMAX  TMIN  TOBS
##    <date>     <dbl> <dbl> <dbl>
##  1 1891-10-01  20.6   7.8    NA
##  2 1891-10-02  26.7  13.9    NA
##  3 1891-10-03  26.1  16.1    NA
##  4 1891-10-04  22.8  11.1    NA
##  5 1891-10-05  13.9   6.7    NA
##  6 1891-10-06  14.4   5      NA
##  7 1891-10-07  10.6   5.6    NA
##  8 1891-10-08  13.9   3.3    NA
##  9 1891-10-09  15     3.9    NA
## 10 1891-10-10  16.7   5      NA
## # … with 46,640 more rows
```

Other helper functions like `starts_with` that you can use with `select` include `ends_with`, `contains`, and `matches`. Let's put this together with the precipitation data that we might be interested in using later


```r
read_csv('noaa/USC00200230.csv', col_types="ccDdddddddddd") %>%
	select(DATE, starts_with("T"), PRCP, SNOW, SNWD)
```

```
## # A tibble: 46,650 x 7
##    DATE        TMAX  TMIN  TOBS  PRCP  SNOW  SNWD
##    <date>     <dbl> <dbl> <dbl> <dbl> <dbl> <dbl>
##  1 1891-10-01  20.6   7.8    NA  NA      NA    NA
##  2 1891-10-02  26.7  13.9    NA  NA      NA    NA
##  3 1891-10-03  26.1  16.1    NA  NA      NA    NA
##  4 1891-10-04  22.8  11.1    NA   7.6    NA    NA
##  5 1891-10-05  13.9   6.7    NA  NA      NA    NA
##  6 1891-10-06  14.4   5      NA  NA      NA    NA
##  7 1891-10-07  10.6   5.6    NA   4.1    NA    NA
##  8 1891-10-08  13.9   3.3    NA  NA      NA    NA
##  9 1891-10-09  15     3.9    NA  NA      NA    NA
## 10 1891-10-10  16.7   5      NA  NA      NA    NA
## # … with 46,640 more rows
```

We can also tell `select`, which columns we don't want. This can be done by putting a `-` before the column name. For instance, if we wanted to remove the `STATION` and `NAME` columns we could do this


```r
read_csv('noaa/USC00200230.csv', col_types="ccDdddddddddd") %>%
	select(-STATION, -NAME)
```

```
## # A tibble: 46,650 x 11
##    DATE        DAPR  DASF  MDPR  MDSF  PRCP  SNOW  SNWD  TMAX  TMIN  TOBS
##    <date>     <dbl> <dbl> <dbl> <dbl> <dbl> <dbl> <dbl> <dbl> <dbl> <dbl>
##  1 1891-10-01    NA    NA    NA    NA  NA      NA    NA  20.6   7.8    NA
##  2 1891-10-02    NA    NA    NA    NA  NA      NA    NA  26.7  13.9    NA
##  3 1891-10-03    NA    NA    NA    NA  NA      NA    NA  26.1  16.1    NA
##  4 1891-10-04    NA    NA    NA    NA   7.6    NA    NA  22.8  11.1    NA
##  5 1891-10-05    NA    NA    NA    NA  NA      NA    NA  13.9   6.7    NA
##  6 1891-10-06    NA    NA    NA    NA  NA      NA    NA  14.4   5      NA
##  7 1891-10-07    NA    NA    NA    NA   4.1    NA    NA  10.6   5.6    NA
##  8 1891-10-08    NA    NA    NA    NA  NA      NA    NA  13.9   3.3    NA
##  9 1891-10-09    NA    NA    NA    NA  NA      NA    NA  15     3.9    NA
## 10 1891-10-10    NA    NA    NA    NA  NA      NA    NA  16.7   5      NA
## # … with 46,640 more rows
```

I usually only use this approach if there are one or two columns that I want to remove.

Let's return to the earlier way we set up the `select` function...


```r
read_csv('noaa/USC00200230.csv', col_types="ccDdddddddddd") %>%
	select(DATE, starts_with("T"), PRCP, SNOW, SNWD)
```

```
## # A tibble: 46,650 x 7
##    DATE        TMAX  TMIN  TOBS  PRCP  SNOW  SNWD
##    <date>     <dbl> <dbl> <dbl> <dbl> <dbl> <dbl>
##  1 1891-10-01  20.6   7.8    NA  NA      NA    NA
##  2 1891-10-02  26.7  13.9    NA  NA      NA    NA
##  3 1891-10-03  26.1  16.1    NA  NA      NA    NA
##  4 1891-10-04  22.8  11.1    NA   7.6    NA    NA
##  5 1891-10-05  13.9   6.7    NA  NA      NA    NA
##  6 1891-10-06  14.4   5      NA  NA      NA    NA
##  7 1891-10-07  10.6   5.6    NA   4.1    NA    NA
##  8 1891-10-08  13.9   3.3    NA  NA      NA    NA
##  9 1891-10-09  15     3.9    NA  NA      NA    NA
## 10 1891-10-10  16.7   5      NA  NA      NA    NA
## # … with 46,640 more rows
```
…
You don't always need the quote marks around the column names, but to be consistent, I always use them. Applying to our data we can do the following


```r
read_csv('noaa/USC00200230.csv', col_types="ccDdddddddddd") %>%
	select(DATE, starts_with("T"), PRCP, SNOW, SNWD) %>%
	rename("date" = "DATE")
```

```
## # A tibble: 46,650 x 7
##    date        TMAX  TMIN  TOBS  PRCP  SNOW  SNWD
##    <date>     <dbl> <dbl> <dbl> <dbl> <dbl> <dbl>
##  1 1891-10-01  20.6   7.8    NA  NA      NA    NA
##  2 1891-10-02  26.7  13.9    NA  NA      NA    NA
##  3 1891-10-03  26.1  16.1    NA  NA      NA    NA
##  4 1891-10-04  22.8  11.1    NA   7.6    NA    NA
##  5 1891-10-05  13.9   6.7    NA  NA      NA    NA
##  6 1891-10-06  14.4   5      NA  NA      NA    NA
##  7 1891-10-07  10.6   5.6    NA   4.1    NA    NA
##  8 1891-10-08  13.9   3.3    NA  NA      NA    NA
##  9 1891-10-09  15     3.9    NA  NA      NA    NA
## 10 1891-10-10  16.7   5      NA  NA      NA    NA
## # … with 46,640 more rows
```

We can add other column name changes to the `rename` function by separating them with a comma


```r
read_csv('noaa/USC00200230.csv', col_types="ccDdddddddddd") %>%
	select(DATE, starts_with("T"), PRCP, SNOW, SNWD) %>%
	rename("date" = "DATE", "t_max_c" = "TMAX", "t_min_c" = "TMIN", "t_obs_c" = "TOBS", "total_precip_mm" = "PRCP", "snow_fall_mm" = "SNOW", "snow_depth_mm" = "SNWD")
```

```
## # A tibble: 46,650 x 7
##    date       t_max_c t_min_c t_obs_c total_precip_mm snow_fall_mm snow_depth_mm
##    <date>       <dbl>   <dbl>   <dbl>           <dbl>        <dbl>         <dbl>
##  1 1891-10-01    20.6     7.8      NA            NA             NA            NA
##  2 1891-10-02    26.7    13.9      NA            NA             NA            NA
##  3 1891-10-03    26.1    16.1      NA            NA             NA            NA
##  4 1891-10-04    22.8    11.1      NA             7.6           NA            NA
##  5 1891-10-05    13.9     6.7      NA            NA             NA            NA
##  6 1891-10-06    14.4     5        NA            NA             NA            NA
##  7 1891-10-07    10.6     5.6      NA             4.1           NA            NA
##  8 1891-10-08    13.9     3.3      NA            NA             NA            NA
##  9 1891-10-09    15       3.9      NA            NA             NA            NA
## 10 1891-10-10    16.7     5        NA            NA             NA            NA
## # … with 46,640 more rows
```
…
```
## # A tibble: 51,254 x 4
##    period_end_date part_of_cumulative_count_series state     cases
##    <date>          <lgl>                           <chr>     <int>
##  1 2007-09-15      FALSE                           WISCONSIN     3
##  2 2007-09-22      FALSE                           WISCONSIN     1
##  3 2007-11-03      FALSE                           WISCONSIN     1
##  4 2007-12-15      FALSE                           WISCONSIN     1
##  5 2008-02-09      FALSE                           WISCONSIN     1
##  6 2008-08-09      FALSE                           WISCONSIN     1
##  7 2008-08-23      FALSE                           WISCONSIN     1
##  8 2008-09-06      FALSE                           WISCONSIN     2
##  9 2008-09-27      FALSE                           WISCONSIN     5
## 10 2008-10-18      FALSE                           WISCONSIN     2
## # … with 51,244 more rows
```
…
