…
## Fixing data problems

Let's convert those weird temperatures to `NA` values, which will indicate we don't know the true value. We'll do this with two functions, one we've already seen, `mutate`, and another that builds upon the logical operators we've seen with `filter` called `ifelse`. `mutate` allows us to modify an existing column (i.e. `t_obs_c`) or to create a new column. For example, let's create a `t_max_f` column that has the maximum temperature for the day in degrees Fahrenheit. We'll add a `select` function call to make sure we can see the relevant columns.


```r
aa_weather %>%
	mutate(t_max_f = 9 * t_max_c / 5 + 32) %>%
	select(date, t_max_c, t_max_f)
```

```
## # A tibble: 46,650 x 3
##    date       t_max_c t_max_f
##    <date>       <dbl>   <dbl>
##  1 1891-10-01    20.6    69.1
##  2 1891-10-02    26.7    80.1
##  3 1891-10-03    26.1    79.0
##  4 1891-10-04    22.8    73.0
##  5 1891-10-05    13.9    57.0
##  6 1891-10-06    14.4    57.9
##  7 1891-10-07    10.6    51.1
##  8 1891-10-08    13.9    57.0
##  9 1891-10-09    15      59  
## 10 1891-10-10    16.7    62.1
## # … with 46,640 more rows
```
…
