…
## Grouping and summarizing data, doing it

Let's find the year with the most precipitation. Take a moment and think to yourself what you would need to do to figure this out. Don't worry about the R syntax. Write it out in your own words, use pictures, whatever helps you think. Here's my thinking: I need to get the year for each observation in the data frame. Then I need to group the data by the year. Finally, I need to sum the `total_precip_mm` column within each year. You've seen all of these steps before with another application in the Project Tycho data, but we didn't discuss it in depth.

The first step should sound most familiar. We need to generate a `year` column using the `mutate` and `year` functions


```r
aa_weather %>%
	mutate(year = year(date)) %>%
	select(year, everything()) # this puts the year column first and then everything else
```

```
## # A tibble: 46,650 x 8
##     year date       t_max_c t_min_c t_obs_c total_precip_mm snow_fall_mm
##    <dbl> <date>       <dbl>   <dbl>   <dbl>           <dbl>        <dbl>
##  1  1891 1891-10-01    20.6     7.8      NA            NA             NA
##  2  1891 1891-10-02    26.7    13.9      NA            NA             NA
##  3  1891 1891-10-03    26.1    16.1      NA            NA             NA
##  4  1891 1891-10-04    22.8    11.1      NA             7.6           NA
##  5  1891 1891-10-05    13.9     6.7      NA            NA             NA
##  6  1891 1891-10-06    14.4     5        NA            NA             NA
##  7  1891 1891-10-07    10.6     5.6      NA             4.1           NA
##  8  1891 1891-10-08    13.9     3.3      NA            NA             NA
##  9  1891 1891-10-09    15       3.9      NA            NA             NA
## 10  1891 1891-10-10    16.7     5        NA            NA             NA
## # … with 46,640 more rows, and 1 more variable: snow_depth_mm <dbl>
```

Now we need to group the data by the year. To do this we'll use the `group_by` function


```r
aa_weather %>%
	mutate(year = year(date)) %>%
	group_by(year)
```

```
## # A tibble: 46,650 x 8
## # Groups:   year [130]
##    date       t_max_c t_min_c t_obs_c total_precip_mm snow_fall_mm snow_depth_mm
##    <date>       <dbl>   <dbl>   <dbl>           <dbl>        <dbl>         <dbl>
##  1 1891-10-01    20.6     7.8      NA            NA             NA            NA
##  2 1891-10-02    26.7    13.9      NA            NA             NA            NA
##  3 1891-10-03    26.1    16.1      NA            NA             NA            NA
##  4 1891-10-04    22.8    11.1      NA             7.6           NA            NA
##  5 1891-10-05    13.9     6.7      NA            NA             NA            NA
##  6 1891-10-06    14.4     5        NA            NA             NA            NA
##  7 1891-10-07    10.6     5.6      NA             4.1           NA            NA
##  8 1891-10-08    13.9     3.3      NA            NA             NA            NA
##  9 1891-10-09    15       3.9      NA            NA             NA            NA
## 10 1891-10-10    16.7     5        NA            NA             NA            NA
## # … with 46,640 more rows, and 1 more variable: year <dbl>
```

This output doesn't look that different than when we ran it without the `group_by` function. If you look closely at the second line of output, you'll see that it indicates, "# Groups:   year [130]". It has grouped our data in to 130 groups - one for each year in the dataset.

Finally, we need to sum the `total_precip_mm` column for each group (i.e. year). We will do this with the `summarize` and `sum` functions


```r
aa_weather %>%
	mutate(year = year(date)) %>%
	group_by(year) %>%
	summarize(annual_precip_mm = sum(total_precip_mm))
```

```
## # A tibble: 130 x 2
##     year annual_precip_mm
##    <dbl>            <dbl>
##  1  1891              NA 
##  2  1892              NA 
##  3  1893              NA 
##  4  1894              NA 
##  5  1895              NA 
##  6  1896              NA 
##  7  1897             830.
##  8  1898             836.
##  9  1899             682.
## 10  1900             726.
## # … with 120 more rows
```

Nice, eh?! We have a new data frame with the year and the total precipitation for the year as measured in millimeters. There are two things to mention here. First, for 1891 to 1896 we have `NA` values for `annual_precip_mm`. It's not clear to me whether an `NA` means missing data or no precipitation. We know that there were some records of precipitation in 1891 from the output of running `aa_weather` on its own at the R prompt. If we assume that `NA` means no data, then we can use a special argument to `sum` to treat `NA` values as zeros, `na.rm=TRUE`.


```r
aa_weather %>%
	mutate(year = year(date)) %>%
	group_by(year) %>%
	summarize(annual_precip_mm = sum(total_precip_mm, na.rm=TRUE))
```

```
## # A tibble: 130 x 2
##     year annual_precip_mm
##    <dbl>            <dbl>
##  1  1891             174.
##  2  1892             787.
##  3  1893             989.
##  4  1894             653.
##  5  1895             628.
##  6  1896             756.
##  7  1897             830.
##  8  1898             836.
##  9  1899             682.
## 10  1900             726.
## # … with 120 more rows
```
## Thinking about and visualizing our data

The data for 1891 started in October, which explains why it has relatively little precipitation. Again, whether to treat the `NA` values as zeroes really depends on what they represent for your data. For this dataset, I'm content to treat them as zeroes. I would like to get rid of the partial data for 1891 and 2020 with `filter`


```r
aa_weather %>%
	mutate(year = year(date)) %>%
	group_by(year) %>%
	summarize(annual_precip_mm = sum(total_precip_mm, na.rm=TRUE)) %>%
	filter(year != 1891 & year != 2020) # note that != is the opposite of ==, i.e not equal to
```

```
## # A tibble: 128 x 2
##     year annual_precip_mm
##    <dbl>            <dbl>
##  1  1892             787.
##  2  1893             989.
##  3  1894             653.
##  4  1895             628.
##  5  1896             756.
##  6  1897             830.
##  7  1898             836.
##  8  1899             682.
##  9  1900             726.
## 10  1901             657.
## # … with 118 more rows
```

Excellent! These data are sorted by year, how would we sort it by `annual_precip_mm`? We can use the `arrange` function


```r
aa_weather %>%
	mutate(year = year(date)) %>%
	group_by(year) %>%
	summarize(annual_precip_mm = sum(total_precip_mm, na.rm=TRUE)) %>%
	filter(year != 1891 & year != 2020) %>%
	arrange(annual_precip_mm)
```

```
## # A tibble: 128 x 2
##     year annual_precip_mm
##    <dbl>            <dbl>
##  1  1955             420.
##  2  1963             428.
##  3  1934             482.
##  4  1930             559.
##  5  1958             566.
##  6  1965             566.
##  7  1946             602.
##  8  1971             609 
##  9  1964             609.
## 10  1953             614.
## # … with 118 more rows
```

That does an ascending sort and shows that 1955, 1963, and 1934 were the driest years. To do a descending sort, we need to include the `desc` function


```r
aa_weather %>%
	mutate(year = year(date)) %>%
	group_by(year) %>%
	summarize(annual_precip_mm = sum(total_precip_mm, na.rm=TRUE)) %>%
	filter(year != 1891 & year != 2020) %>%
	arrange(desc(annual_precip_mm))
```

```
## # A tibble: 128 x 2
##     year annual_precip_mm
##    <dbl>            <dbl>
##  1  2011            1298.
##  2  2006            1208.
##  3  1990            1200.
##  4  2000            1166.
##  5  2019            1155.
##  6  1985            1097 
##  7  2018            1072.
##  8  1917            1068.
##  9  2008            1060 
## 10  2009            1049 
## # … with 118 more rows
```
…
annual_precipitation %>%
	arrange(desc(annual_precip_mm))

annual_precipitation %>%
	ggplot(aes(x=year, y=annual_precip_mm)) +
		geom_line() +
		geom_smooth()
```

```
## # A tibble: 128 x 2
##     year annual_precip_mm
##    <dbl>            <dbl>
##  1  2011            1298.
##  2  2006            1208.
##  3  1990            1200.
##  4  2000            1166.
##  5  2019            1155.
##  6  1985            1097 
##  7  2018            1072.
##  8  1917            1068.
##  9  2008            1060 
## 10  2009            1049 
## # … with 118 more rows
```
…
That should look pretty familiar. I want to emphasize that thinking through the strategy is the hard part of programming. If you can figure out how to break down a problem into steps, then you can largely google the rest or find examples of how to do each step.

We'll start with creating a month and day column with `mutate`


```r
aa_weather %>%
	mutate(month = month(date),
		day = day(date)) %>%
	select(month, day, everything())
```

```
## # A tibble: 46,650 x 9
##    month   day date       t_max_c t_min_c t_obs_c total_precip_mm snow_fall_mm
##    <dbl> <int> <date>       <dbl>   <dbl>   <dbl>           <dbl>        <dbl>
##  1    10     1 1891-10-01    20.6     7.8      NA            NA             NA
##  2    10     2 1891-10-02    26.7    13.9      NA            NA             NA
##  3    10     3 1891-10-03    26.1    16.1      NA            NA             NA
##  4    10     4 1891-10-04    22.8    11.1      NA             7.6           NA
##  5    10     5 1891-10-05    13.9     6.7      NA            NA             NA
##  6    10     6 1891-10-06    14.4     5        NA            NA             NA
##  7    10     7 1891-10-07    10.6     5.6      NA             4.1           NA
##  8    10     8 1891-10-08    13.9     3.3      NA            NA             NA
##  9    10     9 1891-10-09    15       3.9      NA            NA             NA
## 10    10    10 1891-10-10    16.7     5        NA            NA             NA
## # … with 46,640 more rows, and 1 more variable: snow_depth_mm <dbl>
```

That looks right. Now we want to group by those two new columns. Previously, we grouped by a single column. To group by two or more columns, we separate the variables with commas


```r
aa_weather %>%
	mutate(month = month(date),
		day = day(date)) %>%
	group_by(month, day)
```

```
## # A tibble: 46,650 x 9
## # Groups:   month, day [366]
##    date       t_max_c t_min_c t_obs_c total_precip_mm snow_fall_mm snow_depth_mm
##    <date>       <dbl>   <dbl>   <dbl>           <dbl>        <dbl>         <dbl>
##  1 1891-10-01    20.6     7.8      NA            NA             NA            NA
##  2 1891-10-02    26.7    13.9      NA            NA             NA            NA
##  3 1891-10-03    26.1    16.1      NA            NA             NA            NA
##  4 1891-10-04    22.8    11.1      NA             7.6           NA            NA
##  5 1891-10-05    13.9     6.7      NA            NA             NA            NA
##  6 1891-10-06    14.4     5        NA            NA             NA            NA
##  7 1891-10-07    10.6     5.6      NA             4.1           NA            NA
##  8 1891-10-08    13.9     3.3      NA            NA             NA            NA
##  9 1891-10-09    15       3.9      NA            NA             NA            NA
## 10 1891-10-10    16.7     5        NA            NA             NA            NA
## # … with 46,640 more rows, and 2 more variables: month <dbl>, day <int>
```

Now that we've grouped the data, we see the line, `# Groups:   month, day [366]`. We are now set to summarize the data


```r
aa_weather %>%
	mutate(month = month(date),
		day = day(date)) %>%
	group_by(month, day) %>%
	summarize(t_med_c = median(t_max_c))
```

```
## # A tibble: 366 x 3
## # Groups:   month [12]
##    month   day t_med_c
##    <dbl> <int>   <dbl>
##  1     1     1    0.6 
##  2     1     2    0.6 
##  3     1     3    0   
##  4     1     4    0   
##  5     1     5   -0.6 
##  6     1     6   -1.1 
##  7     1     7   -0.3 
##  8     1     8   -0.6 
##  9     1     9   -0.85
## 10     1    10   -0.3 
## # … with 356 more rows
```
…
```r
aa_weather %>%
	mutate(month = month(date),
		day = day(date)) %>%
	group_by(month, day) %>%
	summarize(t_med_c = median(t_max_c, na.rm=T),
		t_lci_c = quantile(t_max_c, prob=0.025, na.rm=T),
		t_uci_c = quantile(t_max_c, prob=0.975, na.rm=T),
		n = n())
```

```
## # A tibble: 366 x 6
## # Groups:   month [12]
##    month   day t_med_c t_lci_c t_uci_c     n
##    <dbl> <int>   <dbl>   <dbl>   <dbl> <int>
##  1     1     1    0.6    -8.9     10     128
##  2     1     2    0.6    -9.21    11.0   128
##  3     1     3    0     -11.0     11.6   128
##  4     1     4    0     -11.0     10.9   128
##  5     1     5   -0.6   -12.5     11.0   128
##  6     1     6   -1.1   -11.4     10.8   128
##  7     1     7   -0.3   -10       10.4   128
##  8     1     8   -0.6    -9.31    11.6   128
##  9     1     9   -0.85   -9.90    12.0   128
## 10     1    10   -0.3   -11.7      8.3   128
## # … with 356 more rows
```
…
We see that the temperature on the day I was born was a few degrees cooler than the median temperature over the past 128 years. To plot these data to visually find the temperature for any day of the year we need to think about our x-axis value. We have lost the date because we summarized on `month` and `day`. We can create a new date column by making R think that it is always 2020 - this is a good choice because 2020 is a leap year. We'll make a new column called `date` that is the year, month, and day pasted with hyphens. We can do this pasting with the `paste` function.


```r
daily_temps %>%
	mutate(date = paste(2020, month, day, sep='-'))
```

```
## # A tibble: 366 x 7
##    month   day t_med_c t_lci_c t_uci_c     n date     
##    <dbl> <int>   <dbl>   <dbl>   <dbl> <int> <chr>    
##  1     1     1    0.6    -8.9     10     128 2020-1-1 
##  2     1     2    0.6    -9.21    11.0   128 2020-1-2 
##  3     1     3    0     -11.0     11.6   128 2020-1-3 
##  4     1     4    0     -11.0     10.9   128 2020-1-4 
##  5     1     5   -0.6   -12.5     11.0   128 2020-1-5 
##  6     1     6   -1.1   -11.4     10.8   128 2020-1-6 
##  7     1     7   -0.3   -10       10.4   128 2020-1-7 
##  8     1     8   -0.6    -9.31    11.6   128 2020-1-8 
##  9     1     9   -0.85   -9.90    12.0   128 2020-1-9 
## 10     1    10   -0.3   -11.7      8.3   128 2020-1-10
## # … with 356 more rows
```

We see that the `date` column is a character format, but we'd like it to be a date format. We can convert this ISO-ish format to true ISO date format by wrapping the `ymd` function around our `paste` function.


```r
daily_temps %>%
	mutate(date = ymd(paste(2020, month, day, sep='-')))
```

```
## # A tibble: 366 x 7
##    month   day t_med_c t_lci_c t_uci_c     n date      
##    <dbl> <int>   <dbl>   <dbl>   <dbl> <int> <date>    
##  1     1     1    0.6    -8.9     10     128 2020-01-01
##  2     1     2    0.6    -9.21    11.0   128 2020-01-02
##  3     1     3    0     -11.0     11.6   128 2020-01-03
##  4     1     4    0     -11.0     10.9   128 2020-01-04
##  5     1     5   -0.6   -12.5     11.0   128 2020-01-05
##  6     1     6   -1.1   -11.4     10.8   128 2020-01-06
##  7     1     7   -0.3   -10       10.4   128 2020-01-07
##  8     1     8   -0.6    -9.31    11.6   128 2020-01-08
##  9     1     9   -0.85   -9.90    12.0   128 2020-01-09
## 10     1    10   -0.3   -11.7      8.3   128 2020-01-10
## # … with 356 more rows
```
…
annual_snowfall %>%
	arrange(desc(annual_snowfall_mm))

annual_snowfall %>%
	ggplot(aes(x=year, y=annual_snowfall_mm)) +
		geom_line() +
		geom_smooth()
```

```
## # A tibble: 128 x 2
##     year annual_snowfall_mm
##    <dbl>              <dbl>
##  1  2008               2687
##  2  2005               2471
##  3  1893               2238
##  4  1923               2231
##  5  2014               2138
##  6  2000               1957
##  7  1999               1924
##  8  2013               1886
##  9  1993               1866
## 10  2011               1831
## # … with 118 more rows
```
…
