…
## Getting familiar with and focusing on data

Again, there are *many* questions we could try to answer with these data. I'm going to focus on degrees granted in 2018 by field across institutions. By looking through the files, I decided that I was most interested in "Institutional Characteristics	Directory information" and "Completions	Awards/degrees conferred by program (6-digit CIP code), award level, race/ethnicity, and gender: July 1, 2017 to June 30, 2018". These files are in the `ipeds` directory as `c2018.csv`/`c2018.xlsx` and `hd2018.csv`/`hd2018.xlsx`, respectively. The csv files contain the data and the xlsx files contain the data dictionary for each csv file. We'll start by loading the `tidyverse` package and reading in the `c2018_a` csv file as the `degrees` data frame.


```r
library(tidyverse)
degrees <- read_csv("ipeds/c2018_a.csv")
degrees
```

```
## # A tibble: 290,119 x 64
##    UNITID CIPCODE MAJORNUM AWLEVEL XCTOTALT CTOTALT XCTOTALM CTOTALM XCTOTALW
##     <dbl> <chr>      <dbl> <chr>   <chr>      <dbl> <chr>      <dbl> <chr>   
##  1 100654 01.0999        1 05      R              5 Z              0 R       
##  2 100654 01.1001        1 05      R              9 R              2 R       
##  3 100654 01.1001        1 07      R              5 R              1 R       
##  4 100654 01.1001        1 17      R              1 R              1 Z       
##  5 100654 01.9999        1 05      R              6 R              1 R       
##  6 100654 01.9999        1 07      R              7 R              2 R       
##  7 100654 01.9999        1 17      R              1 Z              0 R       
##  8 100654 03.0599        1 05      R             12 R             11 R       
##  9 100654 04.0301        1 05      R              2 Z              0 R       
## 10 100654 04.0301        1 07      R             11 R              7 R       
## # … with 290,109 more rows, and 55 more variables: CTOTALW <dbl>,
## #   XCAIANT <chr>, CAIANT <dbl>, XCAIANM <chr>, CAIANM <dbl>, XCAIANW <chr>,
## #   CAIANW <dbl>, XCASIAT <chr>, CASIAT <dbl>, XCASIAM <chr>, CASIAM <dbl>,
## #   XCASIAW <chr>, CASIAW <dbl>, XCBKAAT <chr>, CBKAAT <dbl>, XCBKAAM <chr>,
## #   CBKAAM <dbl>, XCBKAAW <chr>, CBKAAW <dbl>, XCHISPT <chr>, CHISPT <dbl>,
## #   XCHISPM <chr>, CHISPM <dbl>, XCHISPW <chr>, CHISPW <dbl>, XCNHPIT <chr>,
## #   CNHPIT <dbl>, XCNHPIM <chr>, CNHPIM <dbl>, XCNHPIW <chr>, CNHPIW <dbl>,
## #   XCWHITT <chr>, CWHITT <dbl>, XCWHITM <chr>, CWHITM <dbl>, XCWHITW <chr>,
## #   CWHITW <dbl>, XC2MORT <chr>, C2MORT <dbl>, XC2MORM <chr>, C2MORM <dbl>,
…
`ipeds/c2018_a.xlsx` contains the data dictionary. Open it up in Excel, it has different pages that tell you what the column names mean and what the various values are. For example, the "varlist" and "Description" tabs tell us that "UNITID" tells us the "Unique identification number of the institution". It also tells us that "CIPCODE" is the "CIP Code -  2010 Classification" and that "AWLEVEL" is the "Award Level code". If we want to know the values that correspond to each CIP or Award Level codes, we need to look at the "Frequencies" tab. We see that the first 1426 rows of the "Frequencies" tab are different CIP codes. These correspond to different "majors". Below the CIP codes, we see entries for "MAJORNUM" and "AWLEVEL". Cool - I'd like to look at the 2018 awards data for the University of Michigan. Which "UNITID" corresponds to the University of Michigan or any other university? That "decoder" isn't in this workbook.

If you do some digging on the page where we saw the "C2018_A" data, at the top of the page you'll find "HD2018". The description for this survey is "Institutional Characteristics,	Directory information". Those data and the data dictionary are provided for you in `ipeds/`. Opening `ipeds/hd2018.xlsx` in Microsoft Excel and clicking on the "varlist" or "Description" tab show us that this survey will give us the mapping between "UNITID" and the institution name or "INSTNM". Now, let's open `ipeds/hd2018.csv` in Excel. You can do this by doing "File -> Open..." and browsing to `ipeds/hd2018.csv`. We can then click on the "Edit" menu and click on "Find". In the dialog window that opens, enter "University of Michigan" and press the return key. You'll see that the "University of Michigan-Ann Arbor"'s "UNITID" is "170976".

Now we want to pull all of the rows from the `degrees` data frame that correspond to that `UNITID` value. Remember how to do that?


```r
degrees %>%
	filter(UNITID == 170976)
```

```
## # A tibble: 570 x 64
##    UNITID CIPCODE MAJORNUM AWLEVEL XCTOTALT CTOTALT XCTOTALM CTOTALM XCTOTALW
##     <dbl> <chr>      <dbl> <chr>   <chr>      <dbl> <chr>      <dbl> <chr>   
##  1 170976 03.0101        1 05      R              0 R              0 Z       
##  2 170976 03.0101        1 07      R            107 R             40 R       
##  3 170976 03.0101        1 17      R              2 R              0 R       
##  4 170976 03.0103        1 05      R             93 R             37 R       
##  5 170976 03.0103        1 06      R              0 R              0 Z       
##  6 170976 03.0103        1 08      R              0 R              0 Z       
##  7 170976 03.0103        2 05      R             20 R              9 R       
##  8 170976 03.0201        1 05      R              0 R              0 Z       
##  9 170976 03.0201        1 06      R              0 R              0 Z       
## 10 170976 03.0201        1 07      R              0 R              0 Z       
## # … with 560 more rows, and 55 more variables: CTOTALW <dbl>, XCAIANT <chr>,
## #   CAIANT <dbl>, XCAIANM <chr>, CAIANM <dbl>, XCAIANW <chr>, CAIANW <dbl>,
## #   XCASIAT <chr>, CASIAT <dbl>, XCASIAM <chr>, CASIAM <dbl>, XCASIAW <chr>,
## #   CASIAW <dbl>, XCBKAAT <chr>, CBKAAT <dbl>, XCBKAAM <chr>, CBKAAM <dbl>,
## #   XCBKAAW <chr>, CBKAAW <dbl>, XCHISPT <chr>, CHISPT <dbl>, XCHISPM <chr>,
## #   CHISPM <dbl>, XCHISPW <chr>, CHISPW <dbl>, XCNHPIT <chr>, CNHPIT <dbl>,
## #   XCNHPIM <chr>, CNHPIM <dbl>, XCNHPIW <chr>, CNHPIW <dbl>, XCWHITT <chr>,
## #   CWHITT <dbl>, XCWHITM <chr>, CWHITM <dbl>, XCWHITW <chr>, CWHITW <dbl>,
## #   XC2MORT <chr>, C2MORT <dbl>, XC2MORM <chr>, C2MORM <dbl>, XC2MORW <chr>,
## #   C2MORW <dbl>, XCUNKNT <chr>, CUNKNT <dbl>, XCUNKNM <chr>, CUNKNM <dbl>,
## #   XCUNKNW <chr>, CUNKNW <dbl>, XCNRALT <chr>, CNRALT <dbl>, XCNRALM <chr>,
## #   CNRALM <dbl>, XCNRALW <chr>, CNRALW <dbl>
```

From that filter, we have winnowed our data frame down to the 570 rows that correspond to the University of Michigan. Each row of this data frame corresponds to a different `CIPCODE`/`MAJORNUM`/`AWLEVEL` combination. To simplify things, let's only look at people's first major. Also, the first CIPCODE - "99" - is a grand total so we don't want to include those data.


```r
degrees %>%
	filter(UNITID == 170976 & MAJORNUM == 1 & CIPCODE != 99)
```

```
## # A tibble: 503 x 64
##    UNITID CIPCODE MAJORNUM AWLEVEL XCTOTALT CTOTALT XCTOTALM CTOTALM XCTOTALW
##     <dbl> <chr>      <dbl> <chr>   <chr>      <dbl> <chr>      <dbl> <chr>   
##  1 170976 03.0101        1 05      R              0 R              0 Z       
##  2 170976 03.0101        1 07      R            107 R             40 R       
##  3 170976 03.0101        1 17      R              2 R              0 R       
##  4 170976 03.0103        1 05      R             93 R             37 R       
##  5 170976 03.0103        1 06      R              0 R              0 Z       
##  6 170976 03.0103        1 08      R              0 R              0 Z       
##  7 170976 03.0201        1 05      R              0 R              0 Z       
##  8 170976 03.0201        1 06      R              0 R              0 Z       
##  9 170976 03.0201        1 07      R              0 R              0 Z       
## 10 170976 03.0201        1 08      R              1 R              1 Z       
## # … with 493 more rows, and 55 more variables: CTOTALW <dbl>, XCAIANT <chr>,
## #   CAIANT <dbl>, XCAIANM <chr>, CAIANM <dbl>, XCAIANW <chr>, CAIANW <dbl>,
## #   XCASIAT <chr>, CASIAT <dbl>, XCASIAM <chr>, CASIAM <dbl>, XCASIAW <chr>,
## #   CASIAW <dbl>, XCBKAAT <chr>, CBKAAT <dbl>, XCBKAAM <chr>, CBKAAM <dbl>,
## #   XCBKAAW <chr>, CBKAAW <dbl>, XCHISPT <chr>, CHISPT <dbl>, XCHISPM <chr>,
## #   CHISPM <dbl>, XCHISPW <chr>, CHISPW <dbl>, XCNHPIT <chr>, CNHPIT <dbl>,
## #   XCNHPIM <chr>, CNHPIM <dbl>, XCNHPIW <chr>, CNHPIW <dbl>, XCWHITT <chr>,
## #   CWHITT <dbl>, XCWHITM <chr>, CWHITM <dbl>, XCWHITW <chr>, CWHITW <dbl>,
## #   XC2MORT <chr>, C2MORT <dbl>, XC2MORM <chr>, C2MORM <dbl>, XC2MORW <chr>,
…
From the output, you should notice that it read in the first page of the workbook - "Introduction". We'd like the "Frequencies" tab. Can you use `?read_excel` to figure out how to get the "Frequencies" tab?


```r
read_excel("ipeds/c2018_a.xlsx", sheet="Frequencies")
```

```
## # A tibble: 1,438 x 6
##    varnumber varname codevalue valuelabel                      frequency percent
##        <dbl> <chr>   <chr>     <chr>                               <dbl>   <dbl>
##  1     32000 CIPCODE 99        Grand total                         20385    7.03
##  2     32000 CIPCODE 01.0000   Agriculture, General                  249    0.09
##  3     32000 CIPCODE 01.0101   Agricultural Business and Mana…       185    0.06
##  4     32000 CIPCODE 01.0102   Agribusiness/Agricultural Busi…       203    0.07
##  5     32000 CIPCODE 01.0103   Agricultural Economics                121    0.04
##  6     32000 CIPCODE 01.0104   Farm/Farm and Ranch Management         84    0.03
##  7     32000 CIPCODE 01.0105   Agricultural/Farm Supplies Ret…        30    0.01
##  8     32000 CIPCODE 01.0106   Agricultural Business Technolo…        16    0.01
##  9     32000 CIPCODE 01.0199   Agricultural Business and Mana…        24    0.01
## 10     32000 CIPCODE 01.0201   Agricultural Mechanization, Ge…        45    0.02
## # … with 1,428 more rows
```
…
um_degrees_majors %>% filter(AWLEVEL == "05")
um_degrees_majors %>% filter(AWLEVEL == "07")
um_degrees_majors %>% filter(AWLEVEL == "17")
um_degrees_majors %>% filter(AWLEVEL == "18")
```

```
## # A tibble: 152 x 4
##    degree           AWLEVEL major                                    n_graduates
##    <chr>            <chr>   <chr>                                          <dbl>
##  1 Bachelor's degr… 05      Computer and Information Sciences, Gene…         624
##  2 Bachelor's degr… 05      Business Administration and Management,…         544
##  3 Bachelor's degr… 05      Economics, General                               440
##  4 Bachelor's degr… 05      Experimental Psychology                          351
##  5 Bachelor's degr… 05      Physiological Psychology/Psychobiology           328
##  6 Bachelor's degr… 05      Political Science and Government, Gener…         295
##  7 Bachelor's degr… 05      Mechanical Engineering                           279
##  8 Bachelor's degr… 05      Speech Communication and Rhetoric                247
##  9 Bachelor's degr… 05      Industrial Engineering                           195
## 10 Bachelor's degr… 05      Neuroscience                                     195
## # … with 142 more rows
## # A tibble: 153 x 4
##    degree         AWLEVEL major                                      n_graduates
##    <chr>          <chr>   <chr>                                            <dbl>
##  1 Master's degr… 07      Business Administration and Management, G…         678
##  2 Master's degr… 07      Social Work                                        329
##  3 Master's degr… 07      Electrical and Electronics Engineering             307
##  4 Master's degr… 07      Mechanical Engineering                             186
##  5 Master's degr… 07      Information Science/Studies                        178
##  6 Master's degr… 07      Architectural and Building Sciences/Techn…         154
##  7 Master's degr… 07      Systems Engineering                                146
##  8 Master's degr… 07      Education, General                                 123
##  9 Master's degr… 07      Health/Health Care Administration/Managem…         114
## 10 Master's degr… 07      Natural Resources/Conservation, General            107
## # … with 143 more rows
## # A tibble: 104 x 4
##    degree                  AWLEVEL major                             n_graduates
##    <chr>                   <chr>   <chr>                                   <dbl>
##  1 Doctor's degree - rese… 17      Electrical and Electronics Engin…          55
##  2 Doctor's degree - rese… 17      Chemistry, General                         46
##  3 Doctor's degree - rese… 17      Mechanical Engineering                     39
##  4 Doctor's degree - rese… 17      Physics, General                           34
##  5 Doctor's degree - rese… 17      Aerospace, Aeronautical and Astr…          33
##  6 Doctor's degree - rese… 17      Computer Engineering, General              29
##  7 Doctor's degree - rese… 17      Economics, General                         29
##  8 Doctor's degree - rese… 17      Education, General                         23
##  9 Doctor's degree - rese… 17      Experimental Psychology                    23
## 10 Doctor's degree - rese… 17      Chemical Engineering                       21
## # … with 94 more rows
…
