…
```
## Error: Can't join on 'CARNEGIE' x 'codevalue' because of incompatible types (numeric / character)
```

Now we have a new error! In `carnegie_code`, `codevalue` is a character and in `institutions`, `CARNEGIE` is a double or numeric value. We can convert numbers to characters using `as.character` and if the character is a number (e.g. "-2") we can convert it to a number with `as.numeric`. Since we won't be doing any math on these columns, I'd suggest we convert the numbers to characters.


```r
inst_carnegie %>%
	mutate(CARNEGIE = as.character(CARNEGIE)) %>%
	inner_join(., carnegie_code, by=c("CARNEGIE" = "codevalue"))
```

```
## # A tibble: 6,857 x 4
##    UNITID INSTNM               CARNEGIE valuelabel                              
##     <dbl> <chr>                <chr>    <chr>                                   
##  1 100654 Alabama A & M Unive… 16       Doctoral/Research Universities--Intensi…
##  2 100663 University of Alaba… 15       Doctoral/Research Universities--Extensi…
##  3 100690 Amridge University   51       Theological seminaries and other specia…
##  4 100706 University of Alaba… 16       Doctoral/Research Universities--Intensi…
##  5 100724 Alabama State Unive… 21       Masters Colleges and Universities I     
##  6 100733 University of Alaba… -2       Not applicable, not in Carnegie univers…
##  7 100751 The University of A… 15       Doctoral/Research Universities--Extensi…
##  8 100760 Central Alabama Com… 40       Associates Colleges                     
##  9 100812 Athens State Univer… 32       Baccalaureate Colleges--General         
## 10 100830 Auburn University a… 21       Masters Colleges and Universities I     
## # … with 6,847 more rows
```
…
That results in a data frame with 258 institutions. Now we need to get the Bachelor's, Master's, and Doctorate awards data from the `ipeds/c2018_a.csv` data frame and join it with the `doc_institutions` data frame.


```r
read_csv("ipeds/c2018_a.csv") %>%
	filter(MAJORNUM == 1 & CIPCODE == "99" & CTOTALT > 0 & (AWLEVEL == "05" | AWLEVEL == "17")) %>%
	inner_join(doc_institutions, ., by="UNITID")
```

```
## # A tibble: 300 x 65
##    UNITID INSTNM CIPCODE MAJORNUM AWLEVEL XCTOTALT CTOTALT XCTOTALM CTOTALM
##     <dbl> <chr>  <chr>      <dbl> <chr>   <chr>      <dbl> <chr>      <dbl>
##  1 100663 Unive… 99             1 05      R           2463 R            986
##  2 100663 Unive… 99             1 17      R            161 R             66
##  3 100751 The U… 99             1 05      R           6750 R           2877
##  4 100751 The U… 99             1 17      R            232 R            116
##  5 100858 Aubur… 99             1 05      R           4801 R           2348
##  6 100858 Aubur… 99             1 17      R            253 R            147
##  7 104151 Arizo… 99             1 05      R           9994 R           5467
##  8 104151 Arizo… 99             1 17      R            508 R            301
##  9 104179 Unive… 99             1 05      R           7132 R           3267
## 10 104179 Unive… 99             1 17      R            451 R            229
## # … with 290 more rows, and 56 more variables: XCTOTALW <chr>, CTOTALW <dbl>,
## #   XCAIANT <chr>, CAIANT <dbl>, XCAIANM <chr>, CAIANM <dbl>, XCAIANW <chr>,
## #   CAIANW <dbl>, XCASIAT <chr>, CASIAT <dbl>, XCASIAM <chr>, CASIAM <dbl>,
## #   XCASIAW <chr>, CASIAW <dbl>, XCBKAAT <chr>, CBKAAT <dbl>, XCBKAAM <chr>,
## #   CBKAAM <dbl>, XCBKAAW <chr>, CBKAAW <dbl>, XCHISPT <chr>, CHISPT <dbl>,
## #   XCHISPM <chr>, CHISPM <dbl>, XCHISPW <chr>, CHISPW <dbl>, XCNHPIT <chr>,
## #   CNHPIT <dbl>, XCNHPIM <chr>, CNHPIM <dbl>, XCNHPIW <chr>, CNHPIW <dbl>,
## #   XCWHITT <chr>, CWHITT <dbl>, XCWHITM <chr>, CWHITM <dbl>, XCWHITW <chr>,
## #   CWHITW <dbl>, XC2MORT <chr>, C2MORT <dbl>, XC2MORM <chr>, C2MORM <dbl>,
…
<img src="assets/images/12_session//unnamed-chunk-24-1.png" title="plot of chunk unnamed-chunk-24" alt="plot of chunk unnamed-chunk-24" width="504" />

It would be good to quantify the difference between the representation at the two award levels. You should be thinking about using `group_by` and `summarize`. The challenge is that we would like to group by institution and calculate the difference between the two levels. Unfortunately, we can't easily calculate the difference between rows; only columns. To pull this off, we need to spread our `f_women` column across two columns corresponding to the two award levels. Our data frame has been "tidy" for our purposes, but now it is not - we actually need to make it wider to make it tidy! To do this, we will use the `pivot_wider` function. To demonstrate it, let's simplify our `doc_degree_rates` data frame a bit.


```r
doc_degree_rates %>%
	select(INSTNM, AWLEVEL, f_women)
```

```
## # A tibble: 300 x 3
##    INSTNM                              AWLEVEL f_women
##    <chr>                               <chr>     <dbl>
##  1 University of Alabama at Birmingham 05        0.600
##  2 University of Alabama at Birmingham 17        0.590
##  3 The University of Alabama           05        0.574
##  4 The University of Alabama           17        0.5  
##  5 Auburn University                   05        0.511
##  6 Auburn University                   17        0.419
##  7 Arizona State University-Tempe      05        0.453
##  8 Arizona State University-Tempe      17        0.407
##  9 University of Arizona               05        0.542
## 10 University of Arizona               17        0.492
## # … with 290 more rows
```

What we'd like is one line for each institution and three columns - `INSTNM`, `05`, and `17`. The `05` and `17` columns would have the `f_women` data for each institution. We'll do this with `pivot_wider`


```r
doc_degree_rates %>%
	select(INSTNM, AWLEVEL, f_women) %>%
	pivot_wider(names_from=AWLEVEL, values_from=f_women)
```

```
## # A tibble: 151 x 3
##    INSTNM                               `05`  `17`
##    <chr>                               <dbl> <dbl>
##  1 University of Alabama at Birmingham 0.600 0.590
##  2 The University of Alabama           0.574 0.5  
##  3 Auburn University                   0.511 0.419
##  4 Arizona State University-Tempe      0.453 0.407
##  5 University of Arizona               0.542 0.492
##  6 University of Arkansas              0.548 0.353
##  7 California Institute of Technology  0.404 0.298
##  8 University of California-Berkeley   0.536 0.414
##  9 University of California-Davis      0.582 0.473
## 10 University of California-Irvine     0.561 0.403
## # … with 141 more rows
```

It worked - great! You should be able to see that the column names camed from `AWLEVEL` and hte values came from `f_women`. Now we can calculate the percent drop with a `mutate` function


```r
doc_degree_rates %>%
	select(INSTNM, AWLEVEL, f_women) %>%
	pivot_wider(names_from=AWLEVEL, values_from=f_women) %>%
	mutate(percent_drop = 100*(`05` - `17`)/`05`)
```

```
## # A tibble: 151 x 4
##    INSTNM                               `05`  `17` percent_drop
##    <chr>                               <dbl> <dbl>        <dbl>
##  1 University of Alabama at Birmingham 0.600 0.590         1.60
##  2 The University of Alabama           0.574 0.5          12.9 
##  3 Auburn University                   0.511 0.419        18.0 
##  4 Arizona State University-Tempe      0.453 0.407        10.0 
##  5 University of Arizona               0.542 0.492         9.17
##  6 University of Arkansas              0.548 0.353        35.6 
##  7 California Institute of Technology  0.404 0.298        26.0 
##  8 University of California-Berkeley   0.536 0.414        22.6 
##  9 University of California-Davis      0.582 0.473        18.7 
## 10 University of California-Irvine     0.561 0.403        28.3 
## # … with 141 more rows
```
…
