…
If my city names had something in common that denoted that they were cities, I could use the `starts_with`, `ends_with`, etc helper functions. Turning to our graduation data we can exploit this fact. Here is the explicit listing of the columns to gather


```r
degree_rates %>%
	pivot_longer(cols=c("f_women", "f_asia", "f_bkaa", "f_hisp", "f_nhpi", "f_whit", "f_2mor", "f_unkn", "f_nral"), names_to="group", values_to="f_of_graduates")
```

```
## # A tibble: 2,700 x 6
##    UNITID INSTNM                           AWLEVEL  f_aian group  f_of_graduates
##     <dbl> <chr>                            <chr>     <dbl> <chr>           <dbl>
##  1 100663 University of Alabama at Birmin… 05      0.00203 f_wom…       0.600   
##  2 100663 University of Alabama at Birmin… 05      0.00203 f_asia       0.0641  
##  3 100663 University of Alabama at Birmin… 05      0.00203 f_bkaa       0.217   
##  4 100663 University of Alabama at Birmin… 05      0.00203 f_hisp       0.0341  
##  5 100663 University of Alabama at Birmin… 05      0.00203 f_nhpi       0.000406
##  6 100663 University of Alabama at Birmin… 05      0.00203 f_whit       0.626   
##  7 100663 University of Alabama at Birmin… 05      0.00203 f_2mor       0.0305  
##  8 100663 University of Alabama at Birmin… 05      0.00203 f_unkn       0.00609 
##  9 100663 University of Alabama at Birmin… 05      0.00203 f_nral       0.0203  
## 10 100663 University of Alabama at Birmin… 17      0       f_wom…       0.590   
## # … with 2,690 more rows
```

Alternatively, we could have also written...


```r
degree_rates %>%
	pivot_longer(cols=c(-UNITID, -INSTNM, -AWLEVEL), names_to="group", values_to="f_of_graduates")
```

```
## # A tibble: 3,000 x 5
##    UNITID INSTNM                              AWLEVEL group   f_of_graduates
##     <dbl> <chr>                               <chr>   <chr>            <dbl>
##  1 100663 University of Alabama at Birmingham 05      f_women       0.600   
##  2 100663 University of Alabama at Birmingham 05      f_aian        0.00203 
##  3 100663 University of Alabama at Birmingham 05      f_asia        0.0641  
##  4 100663 University of Alabama at Birmingham 05      f_bkaa        0.217   
##  5 100663 University of Alabama at Birmingham 05      f_hisp        0.0341  
##  6 100663 University of Alabama at Birmingham 05      f_nhpi        0.000406
##  7 100663 University of Alabama at Birmingham 05      f_whit        0.626   
##  8 100663 University of Alabama at Birmingham 05      f_2mor        0.0305  
##  9 100663 University of Alabama at Birmingham 05      f_unkn        0.00609 
## 10 100663 University of Alabama at Birmingham 05      f_nral        0.0203  
## # … with 2,990 more rows
```

...or...


```r
degree_rates %>%
	pivot_longer(cols=starts_with("f_"), names_to="group", values_to="f_of_graduates")
```

```
## # A tibble: 3,000 x 5
##    UNITID INSTNM                              AWLEVEL group   f_of_graduates
##     <dbl> <chr>                               <chr>   <chr>            <dbl>
##  1 100663 University of Alabama at Birmingham 05      f_women       0.600   
##  2 100663 University of Alabama at Birmingham 05      f_aian        0.00203 
##  3 100663 University of Alabama at Birmingham 05      f_asia        0.0641  
##  4 100663 University of Alabama at Birmingham 05      f_bkaa        0.217   
##  5 100663 University of Alabama at Birmingham 05      f_hisp        0.0341  
##  6 100663 University of Alabama at Birmingham 05      f_nhpi        0.000406
##  7 100663 University of Alabama at Birmingham 05      f_whit        0.626   
##  8 100663 University of Alabama at Birmingham 05      f_2mor        0.0305  
##  9 100663 University of Alabama at Birmingham 05      f_unkn        0.00609 
## 10 100663 University of Alabama at Birmingham 05      f_nral        0.0203  
## # … with 2,990 more rows
```
…
