…
of course, we could have also searched for


```r
cip_codes %>%
	filter(str_detect(description, "Biology"))
```

```
## # A tibble: 36 x 2
##    cip_code description                                          
##    <chr>    <chr>                                                
##  1 03.0502  Forest Sciences and Biology                          
##  2 13.1322  Biology Teacher Education                            
##  3 26.0101  Biology/Biological Sciences, General                 
##  4 26.0204  Molecular Biology                                    
##  5 26.0207  Structural Biology                                   
##  6 26.0209  Radiation Biology/Radiobiology                       
##  7 26.0210  Biochemistry and Molecular Biology                   
##  8 26.0299  Biochemistry, Biophysics and Molecular Biology, Other
##  9 26.0301  Botany/Plant Biology                                 
## 10 26.0308  Plant Molecular Biology                              
## # … with 26 more rows
```

or


```r
cip_codes %>%
	filter(str_detect(description, "Biolog"))
```

```
## # A tibble: 41 x 2
##    cip_code description                                          
##    <chr>    <chr>                                                
##  1 03.0502  Forest Sciences and Biology                          
##  2 13.1322  Biology Teacher Education                            
##  3 14.4501  Biological/Biosystems Engineering                    
##  4 26.0101  Biology/Biological Sciences, General                 
##  5 26.0204  Molecular Biology                                    
##  6 26.0207  Structural Biology                                   
##  7 26.0209  Radiation Biology/Radiobiology                       
##  8 26.0210  Biochemistry and Molecular Biology                   
##  9 26.0299  Biochemistry, Biophysics and Molecular Biology, Other
## 10 26.0301  Botany/Plant Biology                                 
## # … with 31 more rows
```

Developing a meaningful search term is a challenge. If we are too broad (e.g. "Micro") we could get something that isn't relevant like "Data Entry/Microcomputer Applications". If we're too specific (e.g. "Biological" vs. "Biology" vs "biology"), then we risk losing out on relevant matches. To make our search insensitive to the case of the search string


```r
cip_codes %>%
	filter(str_detect(description, "(?i)Biolog"))
```

```
## # A tibble: 51 x 2
##    cip_code description                                          
##    <chr>    <chr>                                                
##  1 03.0502  Forest Sciences and Biology                          
##  2 13.1322  Biology Teacher Education                            
##  3 14.4501  Biological/Biosystems Engineering                    
##  4 26.0101  Biology/Biological Sciences, General                 
##  5 26.0204  Molecular Biology                                    
##  6 26.0207  Structural Biology                                   
##  7 26.0209  Radiation Biology/Radiobiology                       
##  8 26.0210  Biochemistry and Molecular Biology                   
##  9 26.0299  Biochemistry, Biophysics and Molecular Biology, Other
## 10 26.0301  Botany/Plant Biology                                 
## # … with 41 more rows
```
…
From this, it looks like most bachelor's degrees in Microbiology are in "Microbiology, General" and occasionally in "Medical Microbiology and Bacteriology". On the other hand, there is more specialization at the doctorate level. Back to our question of which schools are these... I will modify `microbiology_degrees` to get the total number of graduates with a bachelor's and doctorate degree from each major as separate columns


```r
microbiology_degrees %>%
	select(UNITID, description, AWLEVEL, CTOTALT) %>%
	pivot_wider(names_from=AWLEVEL, values_from=CTOTALT, values_fill=list(n=0))
```

```
## # A tibble: 196 x 4
##    UNITID description            `17`  `05`
##     <dbl> <chr>                 <dbl> <dbl>
##  1 100663 Microbiology, General    13    NA
##  2 100724 Microbiology, General     2    NA
##  3 100751 Microbiology, General    NA    15
##  4 104151 Microbiology, General     2    65
##  5 104179 Microbiology, General     1    44
##  6 105330 Microbiology, General    NA    27
##  7 110404 Microbiology, General     1    NA
##  8 110422 Microbiology, General    NA    10
##  9 110538 Microbiology, General    NA    24
## 10 110583 Microbiology, General    NA    21
## # … with 186 more rows
```
…
Now it's easier to see how many different microbiology majors these schools offer


```r
micro_degree_counts %>%
	count(INSTNM) %>%
	arrange(desc(n))
```

```
## # A tibble: 165 x 2
##    INSTNM                                         n
##    <chr>                                      <int>
##  1 University of Pittsburgh-Pittsburgh Campus     4
##  2 Harvard University                             3
##  3 University of Michigan-Ann Arbor               3
##  4 Washington University in St Louis              3
##  5 Baylor College of Medicine                     2
##  6 Boston University                              2
##  7 Cornell University                             2
##  8 Iowa State University                          2
##  9 North Carolina State University at Raleigh     2
## 10 Pennsylvania State University-Main Campus      2
## # … with 155 more rows
```
…
