…
bac_doc_degrees_2017 <- read_csv("ipeds/c2017_a.csv") %>%
	filter(MAJORNUM == 1 & CTOTALT > 0 & (AWLEVEL == "05" | AWLEVEL == "17") & CIPCODE != 99)
```

From here we could go ahead and aggregate by the first two digits of the CIP code for each of our data frames. That doesn't sound very DRY. Does it? Alternatively, we could combine the data frames into a single data frame and then proceed with the rest of our analysis. We can do this with `bind_rows`


```r
bind_rows(bac_doc_degrees_2017, bac_doc_degrees_2018)
```

```
## # A tibble: 148,990 x 64
##    UNITID CIPCODE MAJORNUM AWLEVEL XCTOTALT CTOTALT XCTOTALM CTOTALM XCTOTALW
##     <dbl> <chr>      <dbl> <chr>   <chr>      <dbl> <chr>      <dbl> <chr>   
##  1 100654 01.0999        1 05      R              6 R              2 R       
##  2 100654 01.1001        1 05      R              8 R              1 R       
##  3 100654 01.1001        1 17      R              4 R              1 R       
##  4 100654 01.9999        1 05      R              3 R              1 R       
##  5 100654 01.9999        1 17      R              2 R              2 Z       
##  6 100654 03.0599        1 05      R              8 R              5 R       
##  7 100654 04.0301        1 05      R              4 R              2 R       
##  8 100654 10.0202        1 05      R             20 R              6 R       
##  9 100654 11.0101        1 05      R             16 R             10 R       
## 10 100654 13.1001        1 05      R              2 Z              0 R       
## # … with 148,980 more rows, and 55 more variables: CTOTALW <dbl>,
## #   XCAIANT <chr>, CAIANT <dbl>, XCAIANM <chr>, CAIANM <dbl>, XCAIANW <chr>,
## #   CAIANW <dbl>, XCASIAT <chr>, CASIAT <dbl>, XCASIAM <chr>, CASIAM <dbl>,
## #   XCASIAW <chr>, CASIAW <dbl>, XCBKAAT <chr>, CBKAAT <dbl>, XCBKAAM <chr>,
## #   CBKAAM <dbl>, XCBKAAW <chr>, CBKAAW <dbl>, XCHISPT <chr>, CHISPT <dbl>,
## #   XCHISPM <chr>, CHISPM <dbl>, XCHISPW <chr>, CHISPW <dbl>, XCNHPIT <chr>,
## #   CNHPIT <dbl>, XCNHPIM <chr>, CNHPIM <dbl>, XCNHPIW <chr>, CNHPIW <dbl>,
## #   XCWHITT <chr>, CWHITT <dbl>, XCWHITM <chr>, CWHITM <dbl>, XCWHITW <chr>,
## #   CWHITW <dbl>, XC2MORT <chr>, C2MORT <dbl>, XC2MORM <chr>, C2MORM <dbl>,
## #   XC2MORW <chr>, C2MORW <dbl>, XCUNKNT <chr>, CUNKNT <dbl>, XCUNKNM <chr>,
## #   CUNKNM <dbl>, XCUNKNW <chr>, CUNKNW <dbl>, XCNRALT <chr>, CNRALT <dbl>,
## #   XCNRALM <chr>, CNRALM <dbl>, XCNRALW <chr>, CNRALW <dbl>
```

Do you see a problem with this output? There's no indication which file each row came from. Before merging the data frames, we could add a column to each with `mutate` to indicate the year and then use `bind_rows`. We might come back to that approach, but we can also use the `.id` argument in `bind_rows` to indicate the data frame that the row came from


```r
bind_rows(bac_doc_degrees_2017, bac_doc_degrees_2018, .id="year")
```

```
## # A tibble: 148,990 x 65
##    year  UNITID CIPCODE MAJORNUM AWLEVEL XCTOTALT CTOTALT XCTOTALM CTOTALM
##    <chr>  <dbl> <chr>      <dbl> <chr>   <chr>      <dbl> <chr>      <dbl>
##  1 1     100654 01.0999        1 05      R              6 R              2
##  2 1     100654 01.1001        1 05      R              8 R              1
##  3 1     100654 01.1001        1 17      R              4 R              1
##  4 1     100654 01.9999        1 05      R              3 R              1
##  5 1     100654 01.9999        1 17      R              2 R              2
##  6 1     100654 03.0599        1 05      R              8 R              5
##  7 1     100654 04.0301        1 05      R              4 R              2
##  8 1     100654 10.0202        1 05      R             20 R              6
##  9 1     100654 11.0101        1 05      R             16 R             10
## 10 1     100654 13.1001        1 05      R              2 Z              0
## # … with 148,980 more rows, and 56 more variables: XCTOTALW <chr>,
## #   CTOTALW <dbl>, XCAIANT <chr>, CAIANT <dbl>, XCAIANM <chr>, CAIANM <dbl>,
## #   XCAIANW <chr>, CAIANW <dbl>, XCASIAT <chr>, CASIAT <dbl>, XCASIAM <chr>,
## #   CASIAM <dbl>, XCASIAW <chr>, CASIAW <dbl>, XCBKAAT <chr>, CBKAAT <dbl>,
## #   XCBKAAM <chr>, CBKAAM <dbl>, XCBKAAW <chr>, CBKAAW <dbl>, XCHISPT <chr>,
## #   CHISPT <dbl>, XCHISPM <chr>, CHISPM <dbl>, XCHISPW <chr>, CHISPW <dbl>,
## #   XCNHPIT <chr>, CNHPIT <dbl>, XCNHPIM <chr>, CNHPIM <dbl>, XCNHPIW <chr>,
## #   CNHPIW <dbl>, XCWHITT <chr>, CWHITT <dbl>, XCWHITM <chr>, CWHITM <dbl>,
## #   XCWHITW <chr>, CWHITW <dbl>, XC2MORT <chr>, C2MORT <dbl>, XC2MORM <chr>,
## #   C2MORM <dbl>, XC2MORW <chr>, C2MORW <dbl>, XCUNKNT <chr>, CUNKNT <dbl>,
## #   XCUNKNM <chr>, CUNKNM <dbl>, XCUNKNW <chr>, CUNKNW <dbl>, XCNRALT <chr>,
## #   CNRALT <dbl>, XCNRALM <chr>, CNRALM <dbl>, XCNRALW <chr>, CNRALW <dbl>
```

We see that the first column is labelled "year" and you could use `count` to show that there are two values - `1` and `2`. These numbers refer to the order of the data fames being bound. We can make it more explicit by "naming" the data frames by the year they came from


```r
bind_rows("2017" = bac_doc_degrees_2017, "2018" = bac_doc_degrees_2018, .id="year")
```

```
## # A tibble: 148,990 x 65
##    year  UNITID CIPCODE MAJORNUM AWLEVEL XCTOTALT CTOTALT XCTOTALM CTOTALM
##    <chr>  <dbl> <chr>      <dbl> <chr>   <chr>      <dbl> <chr>      <dbl>
##  1 2017  100654 01.0999        1 05      R              6 R              2
##  2 2017  100654 01.1001        1 05      R              8 R              1
##  3 2017  100654 01.1001        1 17      R              4 R              1
##  4 2017  100654 01.9999        1 05      R              3 R              1
##  5 2017  100654 01.9999        1 17      R              2 R              2
##  6 2017  100654 03.0599        1 05      R              8 R              5
##  7 2017  100654 04.0301        1 05      R              4 R              2
##  8 2017  100654 10.0202        1 05      R             20 R              6
##  9 2017  100654 11.0101        1 05      R             16 R             10
## 10 2017  100654 13.1001        1 05      R              2 Z              0
## # … with 148,980 more rows, and 56 more variables: XCTOTALW <chr>,
## #   CTOTALW <dbl>, XCAIANT <chr>, CAIANT <dbl>, XCAIANM <chr>, CAIANM <dbl>,
## #   XCAIANW <chr>, CAIANW <dbl>, XCASIAT <chr>, CASIAT <dbl>, XCASIAM <chr>,
## #   CASIAM <dbl>, XCASIAW <chr>, CASIAW <dbl>, XCBKAAT <chr>, CBKAAT <dbl>,
## #   XCBKAAM <chr>, CBKAAM <dbl>, XCBKAAW <chr>, CBKAAW <dbl>, XCHISPT <chr>,
## #   CHISPT <dbl>, XCHISPM <chr>, CHISPM <dbl>, XCHISPW <chr>, CHISPW <dbl>,
## #   XCNHPIT <chr>, CNHPIT <dbl>, XCNHPIM <chr>, CNHPIM <dbl>, XCNHPIW <chr>,
## #   CNHPIW <dbl>, XCWHITT <chr>, CWHITT <dbl>, XCWHITM <chr>, CWHITM <dbl>,
## #   XCWHITW <chr>, CWHITW <dbl>, XC2MORT <chr>, C2MORT <dbl>, XC2MORM <chr>,
…
